{"failedCount":0,"prefixedPath":"classpath:karateTests\/myTest.feature","packageQualifiedName":"karateTests.myTest","loopIndex":-1,"relativePath":"karateTests\/myTest.feature","scenarioResults":[{"sectionIndex":0,"stepResults":[{"result":{"nanos":1117700,"startTime":1752905204703,"endTime":1752905204704,"millis":1.1177,"status":"passed"},"step":{"line":4,"prefix":"Given","index":0,"text":"url 'https:\/\/reqres.in\/api\/users'"},"stepLog":"00:06:44.702 karate-config.js loaded \n"},{"result":{"nanos":220598700,"startTime":1752905204704,"endTime":1752905204925,"millis":220.5987,"status":"passed"},"step":{"line":5,"prefix":"When","index":1,"text":"method GET"},"stepLog":"00:06:44.708 request:\n1 > GET https:\/\/reqres.in\/api\/users\n1 > Host: reqres.in\n1 > Connection: Keep-Alive\n1 > User-Agent: Apache-HttpClient\/4.5.14 (Java\/11.0.21)\n1 > Accept-Encoding: gzip,deflate\n\n\n00:06:44.922 response time in milliseconds: 213\n1 < 200\n1 < Date: Sat, 19 Jul 2025 06:03:20 GMT\n1 < Content-Type: application\/json; charset=utf-8\n1 < Transfer-Encoding: chunked\n1 < Connection: keep-alive\n1 < Access-Control-Allow-Origin: *\n1 < Etag: W\/\"41e-bY3U72nulxuwNd\/TmihMEHjLmek\"\n1 < Nel: {\"report_to\":\"heroku-nel\",\"response_headers\":[\"Via\"],\"max_age\":3600,\"success_fraction\":0.01,\"failure_fraction\":0.1}\n1 < Ratelimit-Limit: 100\n1 < Ratelimit-Policy: 100;w=60\n1 < Ratelimit-Remaining: 98\n1 < Ratelimit-Reset: 60\n1 < Referrer-Policy: strict-origin-when-cross-origin\n1 < Report-To: {\"group\":\"heroku-nel\",\"endpoints\":[{\"url\":\"https:\/\/nel.heroku.com\/reports?s=5qK09E%2BZ6xCKjWIZL1NwOTIACsdrlMLj0yy7SDR9v0k%3D\\u0026sid=c4c9725f-1ab0-44d8-820f-430df2718e11\\u0026ts=1752900862\"}],\"max_age\":3600}\n1 < Reporting-Endpoints: heroku-nel=\"https:\/\/nel.heroku.com\/reports?s=5qK09E%2BZ6xCKjWIZL1NwOTIACsdrlMLj0yy7SDR9v0k%3D&sid=c4c9725f-1ab0-44d8-820f-430df2718e11&ts=1752900862\"\n1 < Via: 1.1 heroku-router\n1 < X-Content-Type-Options: nosniff\n1 < X-Frame-Options: DENY\n1 < X-Request-Id: 764c3e9a-26e6-86cd-1515-a8407f32045e\n1 < X-Xss-Protection: 1; mode=block\n1 < Cache-Control: max-age=14400\n1 < CF-Cache-Status: HIT\n1 < Age: 4138\n1 < Vary: Accept-Encoding\n1 < Server: cloudflare\n1 < CF-RAY: 961803dc7d8e328e-SLC\n1 < server-timing: cfL4;desc=\"?proto=TCP&rtt=47337&min_rtt=45724&rtt_var=20374&sent=4&recv=6&lost=0&retrans=0&sent_bytes=219&recv_bytes=930&delivery_rate=24763&cwnd=250&unsent_bytes=0&cid=6c6be7af40f529d0&ts=76&x=0\"\n{\"page\":1,\"per_page\":6,\"total\":12,\"total_pages\":2,\"data\":[{\"id\":1,\"email\":\"george.bluth@reqres.in\",\"first_name\":\"George\",\"last_name\":\"Bluth\",\"avatar\":\"https:\/\/reqres.in\/img\/faces\/1-image.jpg\"},{\"id\":2,\"email\":\"janet.weaver@reqres.in\",\"first_name\":\"Janet\",\"last_name\":\"Weaver\",\"avatar\":\"https:\/\/reqres.in\/img\/faces\/2-image.jpg\"},{\"id\":3,\"email\":\"emma.wong@reqres.in\",\"first_name\":\"Emma\",\"last_name\":\"Wong\",\"avatar\":\"https:\/\/reqres.in\/img\/faces\/3-image.jpg\"},{\"id\":4,\"email\":\"eve.holt@reqres.in\",\"first_name\":\"Eve\",\"last_name\":\"Holt\",\"avatar\":\"https:\/\/reqres.in\/img\/faces\/4-image.jpg\"},{\"id\":5,\"email\":\"charles.morris@reqres.in\",\"first_name\":\"Charles\",\"last_name\":\"Morris\",\"avatar\":\"https:\/\/reqres.in\/img\/faces\/5-image.jpg\"},{\"id\":6,\"email\":\"tracey.ramos@reqres.in\",\"first_name\":\"Tracey\",\"last_name\":\"Ramos\",\"avatar\":\"https:\/\/reqres.in\/img\/faces\/6-image.jpg\"}],\"support\":{\"url\":\"https:\/\/contentcaddy.io?utm_source=reqres&utm_medium=json&utm_campaign=referral\",\"text\":\"Tired of writing endless social media content? Let Content Caddy generate it for you.\"}}\n\n"},{"result":{"nanos":13000,"startTime":1752905204925,"endTime":1752905204925,"millis":0.013,"status":"passed"},"step":{"line":6,"prefix":"Then","index":2,"text":"status 200"}}],"executorName":"main","line":3,"name":"Test a sample GET API","description":"","durationMillis":221.7294,"startTime":1752905204701,"failed":false,"refId":"[1:3]","endTime":1752905204925,"exampleIndex":-1}],"callDepth":0,"name":"Sample API Tests","description":"","resultDate":"2025-07-19 12:06:44 AM","durationMillis":221.7294,"passedCount":1}